 N
 PBE 
 relativistic
 30.0      10.0 60.0          	rmax,aa,bb
       1.42d0   2.84d0		rcov,rprb
    1    9			number of core and valence orbitals
    2    0     2.00      0.00		   
    3    0     0.00      0.00		   
    4    0     0.00      0.00		   
    2    1     3.00      0.00		   
    3    1     0.00      0.00		   
    4    1     0.00      0.00		   
    3    2     0.00      0.00		   
    4    2     0.00      0.00		   
    4    3     0.00      0.00		   

