9 angstroem   # ethanol molecule
free
C       4.686425    0.669786   14.706686
C       4.523400    2.062650   14.144598
H       6.401976    0.183210   13.741719
H       3.724441    0.127448   14.784769
H       5.133985    0.666773   15.726533
H       4.123071    2.027488   13.110485
H       3.814118    2.632267   14.771837
H       5.478806    2.616035   14.135225
O       5.500403   -0.164056   13.836821
